<svg xmlns="http://www.w3.org/2000/svg" width="26" height="24" viewBox="0 0 26 24">
  <defs>
    <style>
      .cls-1 {
        fill: #425563;
        fill-rule: evenodd;
      }
    </style>
  </defs>
  <path id="quiz" class="cls-1" d="M12.779,19.284a2.054,2.054,0,0,1-2.973.136L4.687,14.584a1.958,1.958,0,0,1-.179-2.827,2.16,2.16,0,0,1,2.947.126L9.53,13.843a2.054,2.054,0,0,0,2.973-.136L19.418,5.8a2.157,2.157,0,0,1,2.921-.394,1.958,1.958,0,0,1,.1,2.831Z"/>
</svg>
